Quant Assignment 3
…
anova1 <- aov (pct_no_internet ~ county, data = tract_data)
summary(anova1)

##               Df Sum Sq Mean Sq F value Pr(>F)    
## county         8  0.299 0.03742   8.792  8e-12 ***
## Residuals   1568  6.674 0.00426                   
## ---
## Signif. codes:  0 '***' 0.001 '**' 0.01 '*' 0.05 '.' 0.1 ' ' 1

differences <- TukeyHSD(anova1)

as_tibble(cbind(pair = row.names(differences$county),
                differences$county))

## # A tibble: 36 x 5
##    pair            diff            lwr            upr            `p adj`        
##    <chr>           <chr>           <chr>          <chr>          <chr>          
##  1 ContraCosta-Al~ -0.01995513832~ -0.0376308985~ -0.0022793781~ 0.013778723125~
##  2 Marin-Alameda   -0.02872431508~ -0.0582959295~ 0.00084729937~ 0.064724063727~
##  3 Napa-Alameda    0.004589354273~ -0.0291838094~ 0.03836251794~ 0.999972959996~
##  4 San Francisco-~ 0.012351162660~ -0.0056666028~ 0.03036892817~ 0.453537636869~
##  5 San Mateo-Alam~ -0.01840478228~ -0.0378285867~ 0.00101902212~ 0.079554677688~
##  6 Santa Clara-Al~ -0.02677539073~ -0.0417569085~ -0.0117938729~ 1.187639349642~
##  7 Solano-Alameda  -0.00778037667~ -0.0312516010~ 0.01569084765~ 0.983042116581~
##  8 Sonoma-Alameda  -0.00454613692~ -0.0275425706~ 0.01845029675~ 0.999537637656~
##  9 Marin-ContraCo~ -0.00876917675~ -0.0397334717~ 0.02219511822~ 0.994000057685~
## 10 Napa-ContraCos~ 0.024544492600~ -0.0104545612~ 0.05954354640~ 0.420439302867~
## # ... with 26 more rows
…
##               Df    Sum Sq   Mean Sq F value Pr(>F)    
## county         8 5.984e+10 7.480e+09   19.02 <2e-16 ***
## Residuals   1567 6.162e+11 3.932e+08                   
## ---
## Signif. codes:  0 '***' 0.001 '**' 0.01 '*' 0.05 '.' 0.1 ' ' 1
## 1 observation deleted due to missingness

differences <- TukeyHSD(anova2)

as_tibble(cbind(pair = row.names(differences$county),
                differences$county))

## # A tibble: 36 x 5
##    pair              diff           lwr           upr           `p adj`         
##    <chr>             <chr>          <chr>         <chr>         <chr>           
##  1 ContraCosta-Alam~ 198.562741377~ -5176.847960~ 5573.9734430~ 0.9999999990779~
##  2 Marin-Alameda     9438.18270917~ 448.03650398~ 18428.328914~ 0.0311285276283~
##  3 Napa-Alameda      -8604.2413649~ -18871.27679~ 1662.7940698~ 0.1859737478288~
##  4 San Francisco-Al~ 8509.51376330~ 3030.1998088~ 13988.827717~ 5.4088421382880~
##  5 San Mateo-Alameda 9762.83940432~ 3856.3432698~ 15669.335538~ 1.1297370438034~
##  6 Santa Clara-Alam~ 6061.60863509~ 1504.6422259~ 10618.575044~ 0.0012561886796~
##  7 Solano-Alameda    -9922.9764712~ -17059.28771~ -2786.665230~ 0.0005632551333~
##  8 Sonoma-Alameda    -9598.6792436~ -16590.71676~ -2606.641718~ 0.0007154285724~
##  9 Marin-ContraCosta 9239.61996779~ -172.2091623~ 18651.449097~ 0.0590319003214~
## 10 Napa-ContraCosta  -8802.8041062~ -19441.02836~ 1835.4201535~ 0.2000663903619~
## # ... with 26 more rows
…
anova3 <- aov (avg_hh_sizeE ~ county, data = tract_data)
summary(anova3)

##               Df Sum Sq Mean Sq F value Pr(>F)    
## county         8   67.1   8.394   25.93 <2e-16 ***
## Residuals   1568  507.5   0.324                   
## ---
## Signif. codes:  0 '***' 0.001 '**' 0.01 '*' 0.05 '.' 0.1 ' ' 1

differences <- TukeyHSD(anova3)

as_tibble(cbind(pair = row.names(differences$county),
                differences$county))

## # A tibble: 36 x 5
##    pair             diff           lwr            upr            `p adj`        
##    <chr>            <chr>          <chr>          <chr>          <chr>          
##  1 ContraCosta-Ala~ 0.04212439613~ -0.1120089561~ 0.19625774841~ 0.995296224345~
##  2 Marin-Alameda    -0.4183425925~ -0.6762082805~ -0.1604769046~ 1.842787777051~
##  3 Napa-Alameda     -0.0895555555~ -0.3840589245~ 0.20494781347~ 0.990326256706~
##  4 San Francisco-A~ -0.3723824786~ -0.5294981310~ -0.2152668261~ 1.007716132761~
##  5 San Mateo-Alame~ 0.08439957264~ -0.0849767965~ 0.25377594185~ 0.832591783740~
##  6 Santa Clara-Ala~ 0.24745788530~ 0.11681843692~ 0.37809733368~ 1.756614674830~
##  7 Solano-Alameda   0.06167316784~ -0.1429968686~ 0.26634320433~ 0.9908942857907
##  8 Sonoma-Alameda   -0.2404974747~ -0.4410273173~ -0.0399676321~ 0.006275915028~
##  9 Marin-ContraCos~ -0.4604669887~ -0.7304769078~ -0.1904570695~ 4.779616062156~
## 10 Napa-ContraCosta -0.1316799516~ -0.4368731327~ 0.17351322939~ 0.919124567781~
## # ... with 26 more rows
…
